5;Title+1;Text+1
6;Title+1;Text+1
8;Title+1;Text+1
10;Title+1;Text+1
12;Title+1;Text+1
14;Title+1;Text+1
15;Title+1;Text+1
16;Title+1;Text+1
17;Title+1;Text+1
18;Title+1;Text+1
19;Title+1;Text+1
20;Title+1;Text+1
21;Title+1;Text+1
22;Title+1;Text+1
23;Title+1;Text+1
26;Title+aaa;Text+bbb
27;3495f;93a67ae765
29;73cff87ef1;
30;cdd19;ffba491dff
32;b2a9fc98d4;
33;246dd;6212fdba5b
34;45162;06f9ec1444
36;9d06c8328f;
37;30c6a;eab3488e09
39;e64148d617;
40;560d0;7c67572902
42;9911a21872;
24;Title+ccc;Text+ccc
43;fa9a2;cda2cee57f
45;0b432d29d4;
