38;testDB;;;3;3
39;testDB2;;;2;2
40;testdb3;;;1;1
42;asdsadasd;bbbbb+bbbbb;;3;checked
43;beff0+b4999;6b8+171c+37b2f+825;;5;
44;ggggggg;bbbbb+bbbbb;;1;checked
45;33c6c+37480;f86+adb6+53a3d+a59;;5;
46;651ef+24d94;419+736a+a27d5+933;;5;
47;c27cf+2da33;d5b+1ccb+ac14c+f6b;;5;
48;88cd6+2be52;103+1917+0c150+e38;;5;
49;94ae1+b07b3;aec+f31e+83336+5d8;;5;
